%YAML 1.1
%TAG !u! tag:unity3d.com,2011:
--- !u!114 &11400000
MonoBehaviour:
  m_ObjectHideFlags: 0
  m_CorrespondingSourceObject: {fileID: 0}
  m_PrefabInstance: {fileID: 0}
  m_PrefabAsset: {fileID: 0}
  m_GameObject: {fileID: 0}
  m_Enabled: 1
  m_EditorHideFlags: 0
  m_Script: {fileID: 11500000, guid: 94b84f09427e14909a13c2f14533f457, type: 3}
  m_Name: level_1
  m_EditorClassIdentifier: 
  levelName: Stars
  backgroundImage:
    m_AssetGUID: 247307817019c4abf8082c2a590da6ba
    m_SubObjectName: 
    m_SubObjectType: 
    m_EditorAssetChanged: 0
  targetImage:
    m_AssetGUID: c3f0f877c822a43d2973cd0d5ccace22
    m_SubObjectName: 
    m_SubObjectType: 
    m_EditorAssetChanged: 0
