%YAML 1.1
%TAG !u! tag:unity3d.com,2011:
--- !u!1001 &8342563820713270958
PrefabInstance:
  m_ObjectHideFlags: 0
  serializedVersion: 2
  m_Modification:
    m_TransformParent: {fileID: 0}
    m_Modifications:
    - target: {fileID: 2357788690078219818, guid: 2c1e365132e8444d6a415496fad259ea, type: 3}
      propertyPath: m_OnClick.m_PersistentCalls.m_Calls.Array.size
      value: 1
      objectReference: {fileID: 0}
    - target: {fileID: 2357788690078219818, guid: 2c1e365132e8444d6a415496fad259ea, type: 3}
      propertyPath: m_OnClick.m_PersistentCalls.m_Calls.Array.data[0].m_Mode
      value: 1
      objectReference: {fileID: 0}
    - target: {fileID: 2357788690078219818, guid: 2c1e365132e8444d6a415496fad259ea, type: 3}
      propertyPath: m_OnClick.m_PersistentCalls.m_Calls.Array.data[0].m_Target
      value: 
      objectReference: {fileID: 1667991205048222110}
    - target: {fileID: 2357788690078219818, guid: 2c1e365132e8444d6a415496fad259ea, type: 3}
      propertyPath: m_OnClick.m_PersistentCalls.m_Calls.Array.data[0].m_CallState
      value: 2
      objectReference: {fileID: 0}
    - target: {fileID: 2357788690078219818, guid: 2c1e365132e8444d6a415496fad259ea, type: 3}
      propertyPath: m_OnClick.m_PersistentCalls.m_Calls.Array.data[0].m_MethodName
      value: ChangeState
      objectReference: {fileID: 0}
    - target: {fileID: 2357788690078219818, guid: 2c1e365132e8444d6a415496fad259ea, type: 3}
      propertyPath: m_OnClick.m_PersistentCalls.m_Calls.Array.data[0].m_TargetAssemblyTypeName
      value: _Game.UI.Popups.Popup_Settings.UISwitchMusic, Assembly-CSharp
      objectReference: {fileID: 0}
    - target: {fileID: 2357788690078219818, guid: 2c1e365132e8444d6a415496fad259ea, type: 3}
      propertyPath: m_OnClick.m_PersistentCalls.m_Calls.Array.data[0].m_Arguments.m_ObjectArgumentAssemblyTypeName
      value: UnityEngine.Object, UnityEngine
      objectReference: {fileID: 0}
    - target: {fileID: 4279214497919349163, guid: 2c1e365132e8444d6a415496fad259ea, type: 3}
      propertyPath: m_Pivot.x
      value: 0.5
      objectReference: {fileID: 0}
    - target: {fileID: 4279214497919349163, guid: 2c1e365132e8444d6a415496fad259ea, type: 3}
      propertyPath: m_Pivot.y
      value: 0.5
      objectReference: {fileID: 0}
    - target: {fileID: 4279214497919349163, guid: 2c1e365132e8444d6a415496fad259ea, type: 3}
      propertyPath: m_RootOrder
      value: 0
      objectReference: {fileID: 0}
    - target: {fileID: 4279214497919349163, guid: 2c1e365132e8444d6a415496fad259ea, type: 3}
      propertyPath: m_AnchorMax.x
      value: 0.5
      objectReference: {fileID: 0}
    - target: {fileID: 4279214497919349163, guid: 2c1e365132e8444d6a415496fad259ea, type: 3}
      propertyPath: m_AnchorMax.y
      value: 0.5
      objectReference: {fileID: 0}
    - target: {fileID: 4279214497919349163, guid: 2c1e365132e8444d6a415496fad259ea, type: 3}
      propertyPath: m_AnchorMin.x
      value: 0.5
      objectReference: {fileID: 0}
    - target: {fileID: 4279214497919349163, guid: 2c1e365132e8444d6a415496fad259ea, type: 3}
      propertyPath: m_AnchorMin.y
      value: 0.5
      objectReference: {fileID: 0}
    - target: {fileID: 4279214497919349163, guid: 2c1e365132e8444d6a415496fad259ea, type: 3}
      propertyPath: m_SizeDelta.x
      value: 448.8951
      objectReference: {fileID: 0}
    - target: {fileID: 4279214497919349163, guid: 2c1e365132e8444d6a415496fad259ea, type: 3}
      propertyPath: m_SizeDelta.y
      value: 100
      objectReference: {fileID: 0}
    - target: {fileID: 4279214497919349163, guid: 2c1e365132e8444d6a415496fad259ea, type: 3}
      propertyPath: m_LocalPosition.x
      value: 0
      objectReference: {fileID: 0}
    - target: {fileID: 4279214497919349163, guid: 2c1e365132e8444d6a415496fad259ea, type: 3}
      propertyPath: m_LocalPosition.y
      value: 0
      objectReference: {fileID: 0}
    - target: {fileID: 4279214497919349163, guid: 2c1e365132e8444d6a415496fad259ea, type: 3}
      propertyPath: m_LocalPosition.z
      value: 0
      objectReference: {fileID: 0}
    - target: {fileID: 4279214497919349163, guid: 2c1e365132e8444d6a415496fad259ea, type: 3}
      propertyPath: m_LocalRotation.w
      value: 1
      objectReference: {fileID: 0}
    - target: {fileID: 4279214497919349163, guid: 2c1e365132e8444d6a415496fad259ea, type: 3}
      propertyPath: m_LocalRotation.x
      value: 0
      objectReference: {fileID: 0}
    - target: {fileID: 4279214497919349163, guid: 2c1e365132e8444d6a415496fad259ea, type: 3}
      propertyPath: m_LocalRotation.y
      value: 0
      objectReference: {fileID: 0}
    - target: {fileID: 4279214497919349163, guid: 2c1e365132e8444d6a415496fad259ea, type: 3}
      propertyPath: m_LocalRotation.z
      value: 0
      objectReference: {fileID: 0}
    - target: {fileID: 4279214497919349163, guid: 2c1e365132e8444d6a415496fad259ea, type: 3}
      propertyPath: m_AnchoredPosition.x
      value: 0.000015259
      objectReference: {fileID: 0}
    - target: {fileID: 4279214497919349163, guid: 2c1e365132e8444d6a415496fad259ea, type: 3}
      propertyPath: m_AnchoredPosition.y
      value: 140
      objectReference: {fileID: 0}
    - target: {fileID: 4279214497919349163, guid: 2c1e365132e8444d6a415496fad259ea, type: 3}
      propertyPath: m_LocalEulerAnglesHint.x
      value: 0
      objectReference: {fileID: 0}
    - target: {fileID: 4279214497919349163, guid: 2c1e365132e8444d6a415496fad259ea, type: 3}
      propertyPath: m_LocalEulerAnglesHint.y
      value: 0
      objectReference: {fileID: 0}
    - target: {fileID: 4279214497919349163, guid: 2c1e365132e8444d6a415496fad259ea, type: 3}
      propertyPath: m_LocalEulerAnglesHint.z
      value: 0
      objectReference: {fileID: 0}
    - target: {fileID: 5436115703897223781, guid: 2c1e365132e8444d6a415496fad259ea, type: 3}
      propertyPath: m_Name
      value: SettingsSwitch_Music
      objectReference: {fileID: 0}
    m_RemovedComponents: []
  m_SourcePrefab: {fileID: 100100000, guid: 2c1e365132e8444d6a415496fad259ea, type: 3}
--- !u!1 &4086537233045433547 stripped
GameObject:
  m_CorrespondingSourceObject: {fileID: 5436115703897223781, guid: 2c1e365132e8444d6a415496fad259ea, type: 3}
  m_PrefabInstance: {fileID: 8342563820713270958}
  m_PrefabAsset: {fileID: 0}
--- !u!114 &3572465012716821285 stripped
MonoBehaviour:
  m_CorrespondingSourceObject: {fileID: 4779814095100347787, guid: 2c1e365132e8444d6a415496fad259ea, type: 3}
  m_PrefabInstance: {fileID: 8342563820713270958}
  m_PrefabAsset: {fileID: 0}
  m_GameObject: {fileID: 0}
  m_Enabled: 1
  m_EditorHideFlags: 0
  m_Script: {fileID: 11500000, guid: f4688fdb7df04437aeb418b961361dc5, type: 3}
  m_Name: 
  m_EditorClassIdentifier: 
--- !u!114 &1667991205048222110
MonoBehaviour:
  m_ObjectHideFlags: 0
  m_CorrespondingSourceObject: {fileID: 0}
  m_PrefabInstance: {fileID: 0}
  m_PrefabAsset: {fileID: 0}
  m_GameObject: {fileID: 4086537233045433547}
  m_Enabled: 1
  m_EditorHideFlags: 0
  m_Script: {fileID: 11500000, guid: 95cdbfa4747e42c9be5a5a614f998df0, type: 3}
  m_Name: 
  m_EditorClassIdentifier: 
  textState: {fileID: 3572465012716821285}
