%YAML 1.1
%TAG !u! tag:unity3d.com,2011:
--- !u!114 &11400000
MonoBehaviour:
  m_ObjectHideFlags: 0
  m_CorrespondingSourceObject: {fileID: 0}
  m_PrefabInstance: {fileID: 0}
  m_PrefabAsset: {fileID: 0}
  m_GameObject: {fileID: 0}
  m_Enabled: 1
  m_EditorHideFlags: 0
  m_Script: {fileID: 11500000, guid: bbb281ee3bf0b054c82ac2347e9e782c, type: 3}
  m_Name: Levels
  m_EditorClassIdentifier: 
  m_GroupName: Levels
  m_Data:
    m_SerializedData: []
  m_GUID: dff465eaa814840fd97d7f2b4c6e7523
  m_SerializeEntries:
  - m_GUID: 218addf557212460c963860fa15e3d7a
    m_Address: Assets/_Game/Data/LevelVariants
    m_ReadOnly: 0
    m_SerializedLabels:
    - Levels
  m_ReadOnly: 0
  m_Settings: {fileID: 11400000, guid: c8d1f79faba5a4f64bff5be646d9830f, type: 2}
  m_SchemaSet:
    m_Schemas:
    - {fileID: 11400000, guid: 126e8bd28a9b24ddc9bb5435dc1c953e, type: 2}
    - {fileID: 11400000, guid: d61a40b3c079b4d71a82e712ec8bddbe, type: 2}
