%YAML 1.1
%TAG !u! tag:unity3d.com,2011:
--- !u!114 &11400000
MonoBehaviour:
  m_ObjectHideFlags: 0
  m_CorrespondingSourceObject: {fileID: 0}
  m_PrefabInstance: {fileID: 0}
  m_PrefabAsset: {fileID: 0}
  m_GameObject: {fileID: 0}
  m_Enabled: 1
  m_EditorHideFlags: 0
  m_Script: {fileID: 11500000, guid: b1487f5d688e4f94f828f879d599dbdc, type: 3}
  m_Name: Built In Data_PlayerDataGroupSchema
  m_EditorClassIdentifier: 
  m_Group: {fileID: 11400000, guid: d31886a02846d403fb02d47f4e8a3b42, type: 2}
  m_IncludeResourcesFolders: 1
  m_IncludeBuildSettingsScenes: 1
