%YAML 1.1
%TAG !u! tag:unity3d.com,2011:
--- !u!114 &11400000
MonoBehaviour:
  m_ObjectHideFlags: 0
  m_CorrespondingSourceObject: {fileID: 0}
  m_PrefabInstance: {fileID: 0}
  m_PrefabAsset: {fileID: 0}
  m_GameObject: {fileID: 0}
  m_Enabled: 1
  m_EditorHideFlags: 0
  m_Script: {fileID: 11500000, guid: 468a46d0ae32c3544b7d98094e6448a9, type: 3}
  m_Name: AddressableAssetSettings
  m_EditorClassIdentifier: 
  m_DefaultGroup: 9e1c4236f4946455b95705814d91d851
  m_CachedHash:
    serializedVersion: 2
    Hash: 00000000000000000000000000000000
  m_OptimizeCatalogSize: 0
  m_BuildRemoteCatalog: 0
  m_BundleLocalCatalog: 0
  m_CatalogRequestsTimeout: 0
  m_DisableCatalogUpdateOnStart: 0
  m_IgnoreUnsupportedFilesInBuild: 0
  m_UniqueBundleIds: 0
  m_NonRecursiveBuilding: 1
  m_maxConcurrentWebRequests: 500
  m_ContiguousBundles: 1
  m_StripUnityVersionFromBundleBuild: 0
  m_DisableVisibleSubAssetRepresentations: 0
  m_ShaderBundleNaming: 0
  m_ShaderBundleCustomNaming: 
  m_MonoScriptBundleNaming: 0
  m_MonoScriptBundleCustomNaming: 
  m_RemoteCatalogBuildPath:
    m_Id: 
  m_RemoteCatalogLoadPath:
    m_Id: 
  m_ContentStateBuildPath: 
  m_overridePlayerVersion: 
  m_GroupAssets:
  - {fileID: 11400000, guid: d31886a02846d403fb02d47f4e8a3b42, type: 2}
  - {fileID: 11400000, guid: 3f032e7e3e27c4322a07e643f5157251, type: 2}
  - {fileID: 11400000, guid: 2724d3295008149a79b9aece86754a41, type: 2}
  m_BuildSettings:
    m_CompileScriptsInVirtualMode: 0
    m_CleanupStreamingAssetsAfterBuilds: 1
    m_LogResourceManagerExceptions: 1
    m_BundleBuildPath: Temp/com.unity.addressables/AssetBundles
  m_ProfileSettings:
    m_Profiles:
    - m_InheritedParent: 
      m_Id: 1536e6dae5b4747ce808fd8dac10ac1e
      m_ProfileName: Default
      m_Values:
      - m_Id: 82029e2443f51440896f3e98ea55f170
        m_Value: '[UnityEditor.EditorUserBuildSettings.activeBuildTarget]'
      - m_Id: fd81eab4ea97140b5b49cca8e05ff6f8
        m_Value: '[UnityEngine.AddressableAssets.Addressables.BuildPath]/[BuildTarget]'
      - m_Id: b98cae2b65e2c486dbbceab3ca22be9f
        m_Value: '{UnityEngine.AddressableAssets.Addressables.RuntimePath}/[BuildTarget]'
      - m_Id: 17596c82abda74fedb50db092a50a05c
        m_Value: ServerData/[BuildTarget]
      - m_Id: 1e2034fc885e84d98aa82a8cdc64d7cc
        m_Value: http://localhost/[BuildTarget]
    m_ProfileEntryNames:
    - m_Id: 82029e2443f51440896f3e98ea55f170
      m_Name: BuildTarget
      m_InlineUsage: 0
    - m_Id: fd81eab4ea97140b5b49cca8e05ff6f8
      m_Name: LocalBuildPath
      m_InlineUsage: 0
    - m_Id: b98cae2b65e2c486dbbceab3ca22be9f
      m_Name: LocalLoadPath
      m_InlineUsage: 0
    - m_Id: 17596c82abda74fedb50db092a50a05c
      m_Name: RemoteBuildPath
      m_InlineUsage: 0
    - m_Id: 1e2034fc885e84d98aa82a8cdc64d7cc
      m_Name: RemoteLoadPath
      m_InlineUsage: 0
    m_ProfileVersion: 1
  m_LabelTable:
    m_LabelNames:
    - default
    - Levels
  m_SchemaTemplates: []
  m_GroupTemplateObjects:
  - {fileID: 11400000, guid: 8a60738f5650b47229691423f26a1398, type: 2}
  m_InitializationObjects: []
  m_CertificateHandlerType:
    m_AssemblyName: 
    m_ClassName: 
  m_ActivePlayerDataBuilderIndex: 3
  m_DataBuilders:
  - {fileID: 11400000, guid: 5c79e651544bc4bcab7c92d077368146, type: 2}
  - {fileID: 11400000, guid: acaa4470bf0ef469d93130fcab39d86c, type: 2}
  - {fileID: 11400000, guid: 6fd9df7890ae544c58e93fd5b4d84695, type: 2}
  - {fileID: 11400000, guid: 3772629ced6e0451ea27edf39bbdad66, type: 2}
  m_ActiveProfileId: 1536e6dae5b4747ce808fd8dac10ac1e
  m_HostingServicesManager:
    m_HostingServiceInfos: []
    m_Settings: {fileID: 11400000}
    m_NextInstanceId: 0
    m_RegisteredServiceTypeRefs: []
