%YAML 1.1
%TAG !u! tag:unity3d.com,2011:
--- !u!1001 &7698013161275221301
PrefabInstance:
  m_ObjectHideFlags: 0
  serializedVersion: 2
  m_Modification:
    m_TransformParent: {fileID: 0}
    m_Modifications:
    - target: {fileID: 2243579053620368263, guid: bb61deb48e27345cbabb682daad64e67, type: 3}
      propertyPath: m_Name
      value: Bonus_pin
      objectReference: {fileID: 0}
    - target: {fileID: 2887505185346131421, guid: bb61deb48e27345cbabb682daad64e67, type: 3}
      propertyPath: bonusType
      value: 1
      objectReference: {fileID: 0}
    - target: {fileID: 3836130794291962642, guid: bb61deb48e27345cbabb682daad64e67, type: 3}
      propertyPath: m_Pivot.x
      value: 0.5
      objectReference: {fileID: 0}
    - target: {fileID: 3836130794291962642, guid: bb61deb48e27345cbabb682daad64e67, type: 3}
      propertyPath: m_Pivot.y
      value: 0.5
      objectReference: {fileID: 0}
    - target: {fileID: 3836130794291962642, guid: bb61deb48e27345cbabb682daad64e67, type: 3}
      propertyPath: m_RootOrder
      value: 0
      objectReference: {fileID: 0}
    - target: {fileID: 3836130794291962642, guid: bb61deb48e27345cbabb682daad64e67, type: 3}
      propertyPath: m_AnchorMax.x
      value: 0
      objectReference: {fileID: 0}
    - target: {fileID: 3836130794291962642, guid: bb61deb48e27345cbabb682daad64e67, type: 3}
      propertyPath: m_AnchorMax.y
      value: 0
      objectReference: {fileID: 0}
    - target: {fileID: 3836130794291962642, guid: bb61deb48e27345cbabb682daad64e67, type: 3}
      propertyPath: m_AnchorMin.x
      value: 0
      objectReference: {fileID: 0}
    - target: {fileID: 3836130794291962642, guid: bb61deb48e27345cbabb682daad64e67, type: 3}
      propertyPath: m_AnchorMin.y
      value: 0
      objectReference: {fileID: 0}
    - target: {fileID: 3836130794291962642, guid: bb61deb48e27345cbabb682daad64e67, type: 3}
      propertyPath: m_SizeDelta.x
      value: 120
      objectReference: {fileID: 0}
    - target: {fileID: 3836130794291962642, guid: bb61deb48e27345cbabb682daad64e67, type: 3}
      propertyPath: m_SizeDelta.y
      value: 120
      objectReference: {fileID: 0}
    - target: {fileID: 3836130794291962642, guid: bb61deb48e27345cbabb682daad64e67, type: 3}
      propertyPath: m_LocalPosition.x
      value: 0
      objectReference: {fileID: 0}
    - target: {fileID: 3836130794291962642, guid: bb61deb48e27345cbabb682daad64e67, type: 3}
      propertyPath: m_LocalPosition.y
      value: 0
      objectReference: {fileID: 0}
    - target: {fileID: 3836130794291962642, guid: bb61deb48e27345cbabb682daad64e67, type: 3}
      propertyPath: m_LocalPosition.z
      value: 0
      objectReference: {fileID: 0}
    - target: {fileID: 3836130794291962642, guid: bb61deb48e27345cbabb682daad64e67, type: 3}
      propertyPath: m_LocalRotation.w
      value: 1
      objectReference: {fileID: 0}
    - target: {fileID: 3836130794291962642, guid: bb61deb48e27345cbabb682daad64e67, type: 3}
      propertyPath: m_LocalRotation.x
      value: 0
      objectReference: {fileID: 0}
    - target: {fileID: 3836130794291962642, guid: bb61deb48e27345cbabb682daad64e67, type: 3}
      propertyPath: m_LocalRotation.y
      value: 0
      objectReference: {fileID: 0}
    - target: {fileID: 3836130794291962642, guid: bb61deb48e27345cbabb682daad64e67, type: 3}
      propertyPath: m_LocalRotation.z
      value: 0
      objectReference: {fileID: 0}
    - target: {fileID: 3836130794291962642, guid: bb61deb48e27345cbabb682daad64e67, type: 3}
      propertyPath: m_AnchoredPosition.x
      value: 0
      objectReference: {fileID: 0}
    - target: {fileID: 3836130794291962642, guid: bb61deb48e27345cbabb682daad64e67, type: 3}
      propertyPath: m_AnchoredPosition.y
      value: 0
      objectReference: {fileID: 0}
    - target: {fileID: 3836130794291962642, guid: bb61deb48e27345cbabb682daad64e67, type: 3}
      propertyPath: m_LocalEulerAnglesHint.x
      value: 0
      objectReference: {fileID: 0}
    - target: {fileID: 3836130794291962642, guid: bb61deb48e27345cbabb682daad64e67, type: 3}
      propertyPath: m_LocalEulerAnglesHint.y
      value: 0
      objectReference: {fileID: 0}
    - target: {fileID: 3836130794291962642, guid: bb61deb48e27345cbabb682daad64e67, type: 3}
      propertyPath: m_LocalEulerAnglesHint.z
      value: 0
      objectReference: {fileID: 0}
    - target: {fileID: 4077190014475007708, guid: bb61deb48e27345cbabb682daad64e67, type: 3}
      propertyPath: m_text
      value: pin
      objectReference: {fileID: 0}
    m_RemovedComponents: []
  m_SourcePrefab: {fileID: 100100000, guid: bb61deb48e27345cbabb682daad64e67, type: 3}
